id_category;name;description;position;active;
"6";"Cleansers & Exfoliators";"";"0";"1";
"7";"Eyes";"";"1";"1";
"8";"Lips";"";"2";"1";
"9";"Face";"";"3";"1";
"10";"Body";"";"4";"1";
"11";"Neck";"";"5";"1";
"12";"Hair";"";"6";"1";
"13";"Masks";"";"7";"1";
"62";"Men";"";"8";"1";
"15";"Color Cosmetics";"";"9";"1";
"16";"Discovery Kits";"If you’re new to Isomers or want to change up your current routine, our Discovery Kits are a great way to get started! 
Discover the great skin you were always meant to have !";"10";"1";
"17";"Supplements";"";"11";"0";
"106";"Lotion Pumps";"";"12";"1";