id_product;name;reference;price;active;product_recurring;shopname;id_shop_default;id_image;name_category;price_final;is_virtual;nb_downloadable;sav_quantity;badge_danger;
"17";"Acetyl Hexapeptide-8 15% Expression Line Solution 15 ml";"135";"45.000000";"1";"1";"Isomers Laboratories Inc";"1";"361";"Face";"0";"0";"";"1319";"0";
"18";"All-in-One Complete Face Firming Serum 55 ml";"409";"105.000000";"1";"1";"Isomers Laboratories Inc";"1";"446";"Face";"0";"0";"";"55";"0";
"19";"All-in-One Complete Hydra-Fix Rejuvenating Cream 55 ml";"218";"80.000000";"1";"1";"Isomers Laboratories Inc";"1";"363";"Face";"0";"0";"";"10";"0";
"20";"All-in-One Complete Hydra-Protect Dream Cream 55 ml";"1258";"60.000000";"1";"1";"Isomers Laboratories Inc";"1";"447";"Face";"0";"0";"";"50";"0";
"21";"All-in-One Total Daily Cleanser 240 ml";"401";"20.000000";"1";"1";"Isomers Laboratories Inc";"1";"528";"Cleansers & Exfoliators";"0";"0";"";"56";"0";
"22";"Balancing Mask with Amazonian Clay 60 ml";"357";"19.500000";"0";"1";"Isomers Laboratories Inc";"1";"42";"Masks";"0";"0";"";"71";"0";
"23";"ISOMERS Bio Nutritional";"1550";"35.990000";"0";"1";"Isomers Laboratories Inc";"1";"106";"Supplements";"0";"0";"";"257";"0";
"24";"Copper P Concentrate Serum 30 ml";"156";"50.000000";"1";"1";"Isomers Laboratories Inc";"1";"44";"Face";"0";"0";"";"28";"0";
"25";"Daily Exfoliating Cleanser with Tea Tree Extract 240 ml";"159";"20.000000";"1";"1";"Isomers Laboratories Inc";"1";"529";"Cleansers & Exfoliators";"0";"0";"";"38";"0";
"26";"Daily Exfoliating Serum 55 ml";"164";"30.000000";"1";"1";"Isomers Laboratories Inc";"1";"536";"Cleansers & Exfoliators";"0";"0";"";"37";"0";
"27";"Deep Crease Correction 55 ml";"1367";"55.000000";"1";"1";"Isomers Laboratories Inc";"1";"324";"Face";"0";"0";"";"251";"0";
"28";"Double Duty Cleanser 120 ml";"168";"20.000000";"1";"1";"Isomers Laboratories Inc";"1";"368";"Cleansers & Exfoliators";"0";"0";"";"11";"0";
"29";"Fast Lift Eye Serum 30 ml";"511";"30.000000";"1";"1";"Isomers Laboratories Inc";"1";"49";"Eyes";"0";"0";"";"36";"0";
"30";"Forever Youth Moisture Cream: Unique Extremophile Complex 55ml";"1481";"60.000000";"1";"1";"Isomers Laboratories Inc";"1";"459";"Face";"0";"0";"";"14";"0";
"31";"Glutathiosome High Potency Face Serum 30 ml";"858";"85.000000";"0";"1";"Isomers Laboratories Inc";"1";"304";"Face";"0";"0";"";"10";"0";
"32";"Illumi-Bright Hand & Body Cream 240 ml";"1643";"25.000000";"1";"1";"Isomers Laboratories Inc";"1";"467";"Body";"0";"0";"";"14";"0";
"33";"Illumi-Bright Skin Brightening Formula 30 ml";"1579";"25.000000";"1";"1";"Isomers Laboratories Inc";"1";"468";"Face";"0";"0";"";"19";"0";
"34";"Immortal Dermal Booster Vials: set of 5";"1480";"100.000000";"1";"1";"Isomers Laboratories Inc";"1";"54";"Face";"0";"0";"";"4";"0";
"35";"Lip Hydrating and Protecting Balm 5 ml";"194";"4.000000";"1";"1";"Isomers Laboratories Inc";"1";"55";"Lips";"0";"0";"";"21";"0";
"36";"ISOMERS for Men - Eye Serum 30 ml";"177";"35.000000";"1";"1";"Isomers Laboratories Inc";"1";"56";"Eyes";"0";"0";"";"17";"0";
"37";"Nutri Fusion Phyto Mist 240 ml";"1553";"35.000000";"1";"1";"Isomers Laboratories Inc";"1";"57";"Face";"0";"0";"";"9";"0";
"38";"ONE for Lips - The Clear 8 ml";"197";"27.000000";"1";"1";"Isomers Laboratories Inc";"1";"58";"Lips";"0";"0";"";"50";"0";
"39";"Pore Minimizer Refining Complex 30 ml";"345";"19.000000";"1";"1";"Isomers Laboratories Inc";"1";"59";"Face";"0";"0";"";"31";"0";
"40";"Re-Densify Lip Contour Volufirming Formula 8 ml";"1093";"20.000000";"1";"1";"Isomers Laboratories Inc";"1";"450";"Lips";"0";"0";"";"4";"0";
"41";"Re-Densify Volufirming Eye Formula 15 ml";"412";"25.000000";"1";"1";"Isomers Laboratories Inc";"1";"451";"Eyes";"0";"0";"";"39";"0";
"42";"Retiniacin Night Renewing Treatment 55 ml";"381";"40.000000";"1";"1";"Isomers Laboratories Inc";"1";"62";"Face";"0";"0";"";"6";"0";
"43";"Stem Genesis Extreme Eyelash Enhancer 8 ml";"238";"30.000000";"1";"1";"Isomers Laboratories Inc";"1";"452";"Eyes";"0";"0";"";"26";"0";
"44";"Stem Genesis Intensive Serum Concentrate 30 ml";"237";"75.000000";"1";"1";"Isomers Laboratories Inc";"1";"453";"Face";"0";"0";"";"490";"0";
"45";"Stem Genesis Lip Contour Restore 15 ml";"579";"50.000000";"1";"1";"Isomers Laboratories Inc";"1";"454";"Lips";"0";"0";"";"13";"0";
"46";"Stem Genesis Plasma 200 Eye Firming Treatment - 15 ml";"1139";"40.000000";"1";"1";"Isomers Laboratories Inc";"1";"455";"Eyes";"0";"0";"";"73";"0";
"47";"Stem Genesis Youth Sculpting Body Cream 120 ml";"1515";"50.000000";"1";"1";"Isomers Laboratories Inc";"1";"67";"Body";"0";"0";"";"97";"0";
"48";"Ultimate Super Skin Concentrate 55 ml";"1445";"55.000000";"1";"1";"Isomers Laboratories Inc";"1";"456";"Face";"0";"0";"";"435";"0";
"49";"Vitamin K with MDI Complex - High Potency Serum 55 ml";"250";"49.000000";"1";"1";"Isomers Laboratories Inc";"1";"69";"Face";"0";"0";"";"58";"0";
"50";"Wrinkle Viper for Expression Lines 30 ml";"257";"45.000000";"1";"1";"Isomers Laboratories Inc";"1";"458";"Face";"0";"0";"";"13";"0";
"51";"DEODRY: Deodorant/Anti-Perspirant 90 ml";"165";"9.000000";"1";"1";"Isomers Laboratories Inc";"1";"100";"Body";"0";"0";"";"40";"0";
"52";"Enzyme Peel Acid Free Restoration 55 ml";"172";"37.500000";"1";"1";"Isomers Laboratories Inc";"1";"369";"Cleansers & Exfoliators";"0";"0";"";"3";"0";
"53";"ISOMERS for Men - Facial Serum 30 ml";"176";"40.000000";"1";"1";"Isomers Laboratories Inc";"1";"73";"Face";"0";"0";"";"11";"0";
"54";"ISOMERS for Men -  Moisture Cream 55 ml";"208";"40.000000";"1";"1";"Isomers Laboratories Inc";"1";"74";"Face";"0";"0";"";"10";"0";
"55";"ISOMERS for Men - Shave Cream & Cleanser  240 ml";"209";"15.000000";"1";"1";"Isomers Laboratories Inc";"1";"75";"Cleansers & Exfoliators";"0";"0";"";"16";"0";
"56";"R Pur for Face 55 ml";"227";"160.000000";"1";"1";"Isomers Laboratories Inc";"1";"317";"Face";"0";"0";"";"24";"0";
"57";"R Pur for Eyes 10 ml";"230";"35.000000";"1";"1";"Isomers Laboratories Inc";"1";"316";"Eyes";"0";"0";"";"15";"0";
"58";"High Definition Primer because life is high definition 55 ml";"323";"25.000000";"1";"1";"Isomers Laboratories Inc";"1";"374";"Face";"0";"0";"";"15";"0";
"59";"Lip Exfoliating Balm 5 ml";"326";"8.000000";"1";"1";"Isomers Laboratories Inc";"1";"79";"Cleansers & Exfoliators";"0";"0";"";"31";"0";
"60";"ONE for Lips - The Cocoa 8 ml";"351";"27.000000";"1";"1";"Isomers Laboratories Inc";"1";"80";"Lips";"0";"0";"";"50";"0";
"61";"ONE for Lips - The Pink 8 ml";"352";"27.000000";"1";"1";"Isomers Laboratories Inc";"1";"460";"Lips";"0";"0";"";"58";"0";
"62";"Ceramide Pro Lipid Serum 30 ml";"380";"45.000000";"0";"1";"Isomers Laboratories Inc";"1";"82";"Face";"0";"0";"";"7";"0";
"63";"Eye Peel Exfoliate & Renew 30 ml";"382";"25.000000";"1";"1";"Isomers Laboratories Inc";"1";"370";"Eyes";"0";"0";"";"14";"0";
"64";"Clear Skin Acne Treatment Lotion 120 ml";"417";"30.000000";"1";"1";"Isomers Laboratories Inc";"1";"108";"Face";"0";"0";"";"68";"0";
"65";"Clear Skin Acne Treatment Cleanser 240 ml";"418";"20.000000";"1";"1";"Isomers Laboratories Inc";"1";"109";"Cleansers & Exfoliators";"0";"0";"";"79";"0";
"66";"Matrixyl Advanced Wrinkle Defense Serum 30 ml";"428";"60.000000";"1";"1";"Isomers Laboratories Inc";"1";"448";"Face";"0";"0";"";"13";"0";
"67";"Healthy Nails & Cuticle Renewal Formula 30 ml";"667";"19.000000";"1";"1";"Isomers Laboratories Inc";"1";"373";"Body";"0";"0";"";"9";"0";
"68";"Moisture Mask 60 ml";"747";"15.000000";"1";"1";"Isomers Laboratories Inc";"1";"88";"Masks";"0";"0";"";"8";"0";
"69";"Copper Rich Mask";"818";"30.000000";"1";"1";"Isomers Laboratories Inc";"1";"242";"Masks";"0";"0";"";"32";"0";
"70";"BB Cream 55 ml";"853";"25.000000";"1";"1";"Isomers Laboratories Inc";"1";"365";"Face";"0";"0";"";"64";"0";
"71";"Foot and Leg Genius Relief Cream";"1449";"25.000000";"1";"1";"Isomers Laboratories Inc";"1";"91";"Body";"0";"0";"";"5";"0";
"72";"Discovery Kit I: First Signs of Aging";"1628";"49.000000";"1";"1";"Isomers Laboratories Inc";"1";"92";"Discovery Kits";"0";"0";"";"0";"1";
"75";"Discovery Kit IV: Men's 4pc Healthy Skin Essentials Kit";"683";"55.000000";"1";"0";"Isomers Laboratories Inc";"1";"325";"Discovery Kits";"0";"0";"";"12";"0";
"76";"Discovery Kit V: All in ONE Maintenance System";"687";"50.000000";"1";"0";"Isomers Laboratories Inc";"1";"425";"Face";"0";"0";"";"12";"0";
"77";"Discovery Kit VI: All in ONE Fix & Repair";"713";"55.000000";"1";"0";"Isomers Laboratories Inc";"1";"499";"Face";"0";"0";"";"12";"0";
"78";"Discovery Kit VII: Problematic Skin Saver Trio";"1635";"35.000000";"0";"0";"Isomers Laboratories Inc";"1";"98";"Discovery Kits";"0";"0";"";"7";"0";
"80";"All-in-One "Get Started" kit";"002";"20.000000";"0";"1";"Isomers Laboratories Inc";"1";"101";"Discovery Kits";"0";"0";"";"0";"1";
"81";"TEST KIT: For Sensitive Skin";"003";"1.000000";"0";"1";"Isomers Laboratories Inc";"1";"110";"Discovery Kits";"0";"0";"";"7";"0";
"82";"Accelerated Recovery Face Lifting Serum Intense 30 ml";"132";"90.000000";"1";"1";"Isomers Laboratories Inc";"1";"360";"Face";"0";"0";"";"39";"0";
"83";"All-in-ONE Mesmer-Eyez Tightening Eye Formula 30 ml";"3112";"60.000000";"1";"1";"Isomers Laboratories Inc";"1";"237";"Eyes";"0";"0";"";"32";"0";
"84";"All-in-ONE Nutri-Gym Body Toning Moisturizer 240 ml";"3109";"65.000000";"1";"1";"Isomers Laboratories Inc";"1";"238";"Body";"0";"0";"";"13";"0";
"85";"B Calm Anti-Redness Serum 30 ml";"3111";"45.000000";"1";"1";"Isomers Laboratories Inc";"1";"239";"Face";"0";"0";"";"242";"0";
"86";"Beach Waves Texturizing Sea Salt Spray 120 ml";"1965";"12.990000";"1";"1";"Isomers Laboratories Inc";"1";"240";"Hair";"0";"0";"";"16";"0";
"87";"ChitoFirm Skin Lifing Serum 30 ml";"509";"35.000000";"0";"1";"Isomers Laboratories Inc";"1";"241";"Face";"0";"0";"";"2";"0";
"88";"Daily Control Serum with  Tea Tree Extract 120 ml";"163";"30.000000";"1";"1";"Isomers Laboratories Inc";"1";"366";"Face";"0";"0";"";"9";"0";
"89";"Eyelash Protein Treatment 8 ml";"174";"18.000000";"0";"1";"Isomers Laboratories Inc";"1";"244";"Eyes";"0";"0";"";"1";"0";
"90";"Foaming Facial Cleanser 120 ml";"719";"20.000000";"1";"1";"Isomers Laboratories Inc";"1";"245";"Face";"0";"0";"";"17";"0";
"91";"Golden Goddess Self-Tanner 500 ml";"1314";"65.000000";"1";"1";"Isomers Laboratories Inc";"1";"246";"Face";"0";"0";"";"4";"0";
"92";"Gommage Therapy for Body 240 ml";"1313";"28.000000";"1";"1";"Isomers Laboratories Inc";"1";"371";"Body";"0";"0";"";"21";"0";
"93";"H PUR 100 Advanced Moisture Magnet 30 ml";"184";"45.000000";"1";"1";"Isomers Laboratories Inc";"1";"372";"Face";"0";"0";"";"25";"0";
"94";"Hair Growth Inhibitor 240 ml";"3110";"45.000000";"1";"1";"Isomers Laboratories Inc";"1";"249";"Face";"0";"0";"";"14";"0";
"95";"Illumi-Bright Vitamin C & Ferulic Skin Booster 30 ml";"1963";"59.990000";"1";"1";"Isomers Laboratories Inc";"1";"250";"Face";"0";"0";"";"15";"0";
"96";"It's Gorgeous Foundation Shade 1 15 ml";"317";"15.000000";"1";"1";"Isomers Laboratories Inc";"1";"251";"Color Cosmetics";"0";"0";"";"18";"0";
"97";"It's Gorgeous Foundation Shade 3 15 ml";"319";"15.000000";"1";"1";"Isomers Laboratories Inc";"1";"252";"Color Cosmetics";"0";"0";"";"8";"0";
"98";"Kombucha Enzyme Mask 30 ml";"1578";"20.000000";"1";"1";"Isomers Laboratories Inc";"1";"253";"Masks";"0";"0";"";"15";"0";
"99";"Matrixyl 20% Collagen Boosting Concentrate 55 ml";"411";"95.000000";"1";"1";"Isomers Laboratories Inc";"1";"375";"Face";"0";"0";"";"8";"0";
"100";"Matrixyl 20% Maximum Defense Body Cream 240 ml";"1871";"60.000000";"1";"1";"Isomers Laboratories Inc";"1";"255";"Body";"0";"0";"";"2";"0";
"101";"Matrixyl Advanced Radiant Touch 15 ml";"429";"25.000000";"0";"1";"Isomers Laboratories Inc";"1";"256";"Face";"0";"0";"";"2";"0";
"102";"Matrixyl Advanced Wrinkle Defense Cream 55 ml";"253";"40.000000";"1";"1";"Isomers Laboratories Inc";"1";"257";"Face";"0";"0";"";"14";"0";
"103";"Micro Derm Pro Peel 3-Step System";"1915";"60.000000";"1";"1";"Isomers Laboratories Inc";"1";"258";"Face";"0";"0";"";"20";"0";
"104";"Moroccan Gommage Therapy for Body 240 ml";"1650";"20.000000";"1";"1";"Isomers Laboratories Inc";"1";"259";"Body";"0";"0";"";"5";"0";
"105";"PM 2.5 Pollution Defense Cream 55 ml";"1987";"39.000000";"1";"1";"Isomers Laboratories Inc";"1";"260";"Face";"0";"0";"";"92";"0";
"106";"R PUR Plus Daily Intensive Serum 30 ml";"1985";"75.000000";"1";"1";"Isomers Laboratories Inc";"1";"449";"Face";"0";"0";"";"16";"0";
"107";"Re-Affirming Neck & Chin Cream 120 ml";"1792";"44.990000";"1";"1";"Isomers Laboratories Inc";"1";"262";"Body";"0";"0";"";"26";"0";
"108";"Re-Densify 3D Volume Booster 55 ml";"1916";"65.000000";"1";"1";"Isomers Laboratories Inc";"1";"263";"Face";"0";"0";"";"59";"0";
"110";"Reno Genesis Youth d-Code Cream 55 ml";"1495";"65.000000";"1";"1";"Isomers Laboratories Inc";"1";"265";"Face";"0";"0";"";"433";"0";
"111";"Reveal N' Renew Thermal Microdermabrasion Mask 55 ml";"524";"35.000000";"1";"1";"Isomers Laboratories Inc";"1";"266";"Face";"0";"0";"";"64";"0";
"112";"Revive Conditioner 240 ml";"1794";"27.500000";"1";"1";"Isomers Laboratories Inc";"1";"267";"Hair";"0";"0";"";"4";"0";
"113";"Revive Hair Serum 30 ml";"1986";"52.000000";"1";"1";"Isomers Laboratories Inc";"1";"268";"Hair";"0";"0";"";"61";"0";
"114";"Revive Leave-In Hair Booster 120 ml";"1795";"21.500000";"1";"1";"Isomers Laboratories Inc";"1";"269";"Hair";"0";"0";"";"17";"0";
"115";"Revive Shampoo 240 ml";"1793";"21.500000";"1";"1";"Isomers Laboratories Inc";"1";"270";"Hair";"0";"0";"";"12";"0";
"116";"Soft Touch Hand Cream 240 ml";"1448";"25.000000";"1";"1";"Isomers Laboratories Inc";"1";"271";"Body";"0";"0";"";"19";"0";
"117";"Stem Genesis Hair Reclaim Formula 120 ml";"426";"40.000000";"1";"1";"Isomers Laboratories Inc";"1";"272";"Hair";"0";"0";"";"8";"0";
"118";"Sunscreen with UV Pearls 120 ml";"242";"15.000000";"1";"1";"Isomers Laboratories Inc";"1";"273";"Face";"0";"0";"";"31";"0";
"119";"Tan Trick Self Tanner 240 ml";"1290";"24.990000";"1";"1";"Isomers Laboratories Inc";"1";"274";"Face";"0";"0";"";"237";"0";
"120";"Totally Tugless Make Up Remover 55 ml";"1254";"15.000000";"1";"1";"Isomers Laboratories Inc";"1";"275";"Cleansers & Exfoliators";"0";"0";"";"3";"0";
"121";"It's Gorgeous Foundation Shade 2 30 ml";"318";"25.000000";"1";"1";"Isomers Laboratories Inc";"1";"276";"Color Cosmetics";"0";"0";"";"18";"0";
"122";"Daily Exfoliating Cleanser with Tea Tree Extract 120ml";"482";"12.000000";"0";"1";"Isomers Laboratories Inc";"1";"279";"Cleansers & Exfoliators";"0";"0";"";"9";"0";
"123";"BB Cream 30 ml";"1629";"15.000000";"1";"1";"Isomers Laboratories Inc";"1";"281";"Face";"0";"0";"";"22";"0";
"124";"Reno Genesis Youth d-Code Cream 15 ml";"1630";"29.000000";"1";"1";"Isomers Laboratories Inc";"1";"308";"Face";"0";"0";"";"1";"0";
"125";"Glutathiosome High Potency Face Serum 15 ml";"1634";"44.500000";"1";"1";"Isomers Laboratories Inc";"1";"315";"Face";"0";"0";"";"30";"0";
"126";"Glutathiosome: Lifting Eye Veil 15 ml";"1633";"37.500000";"1";"1";"Isomers Laboratories Inc";"1";"301";"Eyes";"0";"0";"";"16";"0";
"127";"Re-Densify Volufirming Face Cream 30 ml";"1534";"30.000000";"0";"1";"Isomers Laboratories Inc";"1";"318";"Face";"0";"0";"";"21";"0";
"128";"All-in-One Complete Eye Firming Serum 15 ml";"410";"37.500000";"1";"1";"Isomers Laboratories Inc";"1";"286";"Eyes";"0";"0";"";"35";"0";
"129";"All-in-One Total Daily Cleanser 120 ml";"688";"12.000000";"1";"1";"Isomers Laboratories Inc";"1";"463";"Cleansers & Exfoliators";"0";"0";"";"26";"0";
"130";"All-in-One Complete Face Firming Serum 30 ml";"689";"55.000000";"1";"1";"Isomers Laboratories Inc";"1";"513";"Face";"0";"0";"";"15";"0";
"131";"All-in-One Complete Hydra-Protect Dream Cream 30 ml";"690";"40.000000";"1";"1";"Isomers Laboratories Inc";"1";"291";"Face";"0";"0";"";"90";"0";
"132";"All-in-One Complete Hydra-Fix Rejuvenating Cream 30 ml";"712";"40.000000";"1";"1";"Isomers Laboratories Inc";"1";"294";"Face";"0";"0";"";"12";"0";
"133";"Daily Control Serum 30 ml";"665";"15.000000";"0";"1";"Isomers Laboratories Inc";"1";"296";"Face";"0";"0";"";"11";"0";
"134";"Stem Genesis Intensive Serum Concentrate 15 ml";"1514";"40.000000";"1";"1";"Isomers Laboratories Inc";"1";"298";"Face";"0";"0";"";"99";"0";
"135";"Discovery Kit II: Chronological Aging and Sensitive Skin";"1631";"75.000000";"1";"0";"Isomers Laboratories Inc";"1";"424";"Face";"0";"0";"";"4";"0";
"137";"Limited Edition: Immortal Dermal Booster 30 ml";"3133";"150.000000";"1";"1";"Isomers Laboratories Inc";"1";"319";"Face";"0";"0";"";"19";"0";
"138";"Ceramide 1 Moisture Guardian 30 ml";"4269";"65.000000";"1";"1";"Isomers Laboratories Inc";"1";"322";"Home";"0";"0";"";"139";"0";
"139";"Skin Perfecting Wand - One Touch Concealer 8 ml";"316";"8.000000";"1";"1";"Isomers Laboratories Inc";"1";"323";"Color Cosmetics";"0";"0";"";"16";"0";
"140";"Discovery Kit III: Age Defying & Firming";"1632";"56.500000";"1";"0";"Isomers Laboratories Inc";"1";"327";"Discovery Kits";"0";"0";"";"14";"0";
"141";"RenewaGlow Clay Mask Cleanser 240 ml";"4168";"35.000000";"1";"1";"Isomers Laboratories Inc";"1";"328";"Cleansers & Exfoliators";"0";"0";"";"5";"0";
"142";"Glutathiosome Plus High Potency Face Serum 30 ml";"4283";"85.000000";"1";"1";"Isomers Laboratories Inc";"1";"329";"Face";"0";"0";"";"12";"0";
"143";"Daily Exfoliating Cleanser with Tea Tree Extract (2* 240ml)";"358";"40.000000";"1";"1";"Isomers Laboratories Inc";"1";"376";"Cleansers & Exfoliators";"0";"0";"";"6";"0";
"144";"SPC Snail Peptide Complex 30 ml";"4375";"47.000000";"1";"1";"Isomers Laboratories Inc";"1";"377";"Face";"0";"0";"";"24";"0";
"145";"Golden Glow Self Tanner 240ml";"4376";"54.000000";"1";"1";"Isomers Laboratories Inc";"1";"378";"Body";"0";"0";"";"20";"0";
"147";"Accelerated Recovery Cream 55ml";"133";"45.000000";"1";"1";"Isomers Laboratories Inc";"1";"402";"Face";"0";"0";"";"49";"0";
"148";"MATRIXYL Maxi Lip II 8 ml";"205";"20.000000";"1";"1";"Isomers Laboratories Inc";"1";"403";"Lips";"0";"0";"";"8";"0";
"149";"R Pur Decadence (Day Formula) 55 ml";"383";"160.000000";"1";"1";"Isomers Laboratories Inc";"1";"404";"Face";"0";"0";"";"6";"0";
"150";"Uplift Crema Seno 120 ml";"450";"12.000000";"0";"1";"Isomers Laboratories Inc";"1";"405";"Neck";"0";"0";"";"42";"0";
"151";"Perfecting Lotion 120 ml";"451";"30.000000";"1";"1";"Isomers Laboratories Inc";"1";"406";"Face";"0";"0";"";"27";"0";
"152";"Synchronizer Cell Renewing Complex 55ml";"481";"40.000000";"1";"1";"Isomers Laboratories Inc";"1";"407";"Face";"0";"0";"";"14";"0";
"153";"All-in-One Complete Eye Firming Serum 30 ml";"502";"60.000000";"1";"1";"Isomers Laboratories Inc";"1";"462";"Eyes";"0";"0";"";"55";"0";
"154";"Lip & Cheek Tint 15 ml";"515";"20.000000";"1";"1";"Isomers Laboratories Inc";"1";"409";"Color Cosmetics";"0";"0";"";"58";"0";
"155";"Relysage Wrinkle Liberator 55 ml";"716";"70.000000";"1";"1";"Isomers Laboratories Inc";"1";"410";"Face";"0";"0";"";"237";"0";
"156";"Glorious Rejuvenating Body Wash 240 ml";"958";"12.000000";"1";"1";"Isomers Laboratories Inc";"1";"411";"Body";"0";"0";"";"27";"0";
"157";"Glorious Rejuvenating Body Cream 240 ml";"959";"23.000000";"1";"1";"Isomers Laboratories Inc";"1";"412";"Body";"0";"0";"";"31";"0";
"158";"FRANKEN-MYRRH Hand Wash 240 ml";"960";"12.000000";"1";"1";"Isomers Laboratories Inc";"1";"413";"Body";"0";"0";"";"63";"0";
"159";"Vitamin C-STEM Mineral Cleanser 120 ml";"1037";"20.000000";"0";"1";"Isomers Laboratories Inc";"1";"414";"Face";"0";"0";"";"4";"0";
"160";"Hair Smoothing Serum: styles, finishes & protects";"1138";"25.000000";"1";"1";"Isomers Laboratories Inc";"1";"415";"Hair";"0";"0";"";"29";"0";
"161";"Body Elixir Toning-Renewing 120 ml";"1230";"25.000000";"1";"1";"Isomers Laboratories Inc";"1";"416";"Body";"0";"0";"";"26";"0";
"162";"Juniper Lemon Mint Body & Hand Wash 240 ml";"1428";"15.000000";"1";"1";"Isomers Laboratories Inc";"1";"417";"Body";"0";"0";"";"56";"0";
"163";"Juniper Lemon Mint Body & Hand Cream 240 ml";"1431";"15.000000";"1";"1";"Isomers Laboratories Inc";"1";"418";"Body";"0";"0";"";"73";"0";
"164";"R Re-Lift Amino Face Serum 30 ml";"1533";"50.000000";"1";"1";"Isomers Laboratories Inc";"1";"419";"Face";"0";"0";"";"48";"0";
"165";"Vitamin C-STEM Orange Plasma Peel 30 ml";"1570";"40.000000";"1";"1";"Isomers Laboratories Inc";"1";"420";"Face";"0";"0";"";"3";"0";
"166";"Moroccan Hydrating Oil 120 ml";"1652";"25.000000";"1";"1";"Isomers Laboratories Inc";"1";"421";"Body";"0";"0";"";"2";"0";
"167";"NRG Serum: Skin Boosting Concentrate 15ml";"1654";"30.000000";"1";"1";"Isomers Laboratories Inc";"1";"422";"Face";"0";"0";"";"13";"0";
"168";"Immortal Lip Recovery Serum 8 ml";"4293";"42.000000";"1";"1";"Isomers Laboratories Inc";"1";"423";"Lips";"0";"0";"";"70";"0";
"5000";"Frost Skin Cooling Gel 240 ml";"4377";"30.000000";"1";"1";"Isomers Laboratories Inc";"1";"379";"Home";"0";"0";"";"24";"0";
"5001";"All in One Lets Get Started";"4401";"125.000000";"1";"0";"Isomers Laboratories Inc";"1";"427";"Home";"0";"0";"";"12";"0";
"5002";"Nutritone with Treatment Setting Serums";"4405";"139.990000";"1";"1";"Isomers Laboratories Inc";"1";"502";"SPECIAL WEB OFFERS";"0";"0";"";"83";"0";
"5003";"NUTRITONE Micro Current Facial Beauty System";"217";"99.990000";"1";"1";"Isomers Laboratories Inc";"1";"428";"Home";"0";"0";"";"250";"0";
"5005";"Best Defense Against Aging Duo";"4402";"39.000000";"1";"1";"Isomers Laboratories Inc";"1";"506";"US ONLY";"0";"0";"";"46";"0";
"5006";"4pc Super Skin Collection";"4403";"99.000000";"1";"1";"Isomers Laboratories Inc";"1";"530";"SPECIAL WEB OFFERS";"0";"0";"";"200";"0";
"5007";"Golden Glow Self Tanner Duo 240ml each";"4376";"79.000000";"1";"1";"Isomers Laboratories Inc";"1";"435";"SPECIAL WEB OFFERS";"0";"0";"";"33";"0";
"5008";"Bright-eyez Duo";"4394";"62.000000";"1";"1";"Isomers Laboratories Inc";"1";"433";"SPECIAL WEB OFFERS";"0";"0";"";"40";"0";
"5009";"All in One Nutri-Gym Duo ";"3109";"78.000000";"0";"1";"Isomers Laboratories Inc";"1";"438";"SPECIAL WEB OFFERS";"0";"0";"";"28";"0";
"5010";"Summer Fresh Skin Routine 3 pc Set";"4392";"62.000000";"1";"1";"Isomers Laboratories Inc";"1";"441";"SPECIAL WEB OFFERS";"0";"0";"";"20";"0";
"5011";"All in One System - Potent & Powerful Results";"4396";"68.000000";"1";"1";"Isomers Laboratories Inc";"1";"442";"SPECIAL WEB OFFERS";"0";"0";"";"33";"0";
"5012";"Bonus Size Illumi-Bright Vitamin C & Ferulic Skin Booster 55 ml";"4391";"80.000000";"1";"1";"Isomers Laboratories Inc";"1";"443";"SPECIAL WEB OFFERS";"0";"0";"";"10";"0";
"5013";"Enzyme Peel Bonus Size 120ml/4oz";"4399";"60.000000";"0";"1";"Isomers Laboratories Inc";"1";"444";"SPECIAL WEB OFFERS";"0";"0";"";"5";"0";
"5014";"Bonus Size Illumi-Bright Vitamin C & Ferulic Skin Booster & BB Cream Duo";"4390";"121.000000";"1";"1";"Isomers Laboratories Inc";"1";"445";"SPECIAL WEB OFFERS";"0";"0";"";"50";"0";
"5015";"Bright and Beautiful 6 pc Collection";"4409";"0.000000";"0";"0";"Isomers Laboratories Inc";"1";"491";"SPECIAL WEB OFFERS";"0";"0";"";"692";"0";
"5016";"Moroccan Soft Soap";"1651";"0.000000";"0";"0";"Isomers Laboratories Inc";"1";"469";"Sale";"0";"0";"";"0";"1";
"5017";"Anti-Redness Duo";"4314";"57.990000";"0";"0";"Isomers Laboratories Inc";"1";"496";"SPECIAL WEB OFFERS";"0";"0";"";"139";"0";
"5018";"Moroccan Spa Trio";"1664";"39.990000";"0";"0";"Isomers Laboratories Inc";"1";"492";"SPECIAL WEB OFFERS";"0";"0";"";"200";"0";
"5019";"Bonus Immortal  Duo";"4410";"99.990000";"0";"0";"Isomers Laboratories Inc";"1";"521";"SPECIAL WEB OFFERS";"0";"0";"";"50";"0";
"5020";"Revive Anti Aging Hair Essentials 3 pc.";"1818";"39.000000";"0";"0";"Isomers Laboratories Inc";"1";"498";"SPECIAL WEB OFFERS";"0";"0";"";"17";"0";
"5021";"SNAPBACK Expression Line Tamer";"413";"0.000000";"0";"0";"Isomers Laboratories Inc";"1";"";"Home";"0";"0";"";"23";"0";
"5022";"Smooth & Correct Trio";"4379";"107.000000";"0";"0";"Isomers Laboratories Inc";"1";"520";"SPECIAL WEB OFFERS";"0";"0";"";"50";"0";
"5024";"BB Cream Duo";"4408";"35.000000";"0";"0";"Isomers Laboratories Inc";"1";"507";"Sale";"0";"0";"";"266";"0";
"5025";"Wrinkle Smoother 3 pc";"4411";"99.000000";"0";"0";"Isomers Laboratories Inc";"1";"494";"SPECIAL WEB OFFERS";"0";"0";"";"258";"0";
"5026";"Accelerated Recovery Serum Duo";"4306";"90.000000";"1";"1";"Isomers Laboratories Inc";"1";"503";"SPECIAL WEB OFFERS";"0";"0";"";"423";"0";
"5027";"Revive Shampoo 2 pack (240 ml each)";"4412";"34.500000";"0";"0";"Isomers Laboratories Inc";"1";"504";"Hair";"0";"0";"";"9";"0";
"5028";"Revive Conditioner 2 pack (240 ml each)";"4413";"44.000000";"0";"0";"Isomers Laboratories Inc";"1";"505";"Hair";"0";"0";"";"11";"0";
"5029";"Color Me Beautiful 6 pc Collection";"4407";"59.990000";"0";"0";"Isomers Laboratories Inc";"1";"508";"SPECIAL WEB OFFERS";"0";"0";"";"54";"0";
"5030";"Lotion Pump for 4.06 fl oz (120ml) Bottles";"1435";"6.500000";"1";"0";"Isomers Laboratories Inc";"1";"515";"Lotion Pumps";"0";"0";"";"35000";"0";
"5031";"Lotion Pump for 8.12 fl oz (240ml) Bottles";"366";"6.500000";"1";"0";"Isomers Laboratories Inc";"1";"516";"Lotion Pumps";"0";"0";"";"128000";"0";
"5032";"Lotion Pump for 16.9 fl oz (500ml) Bottles";"1277";"6.500000";"1";"0";"Isomers Laboratories Inc";"1";"517";"Lotion Pumps";"0";"0";"";"16000";"0";
"5033";"Lotion Pump for 32.46 fl oz (960ml) Bottles ";"1487";"6.500000";"1";"0";"Isomers Laboratories Inc";"1";"518";"Lotion Pumps";"0";"0";"";"4000";"0";
"5034";"Eye Shadow Primer with ATP 15ml";"4415";"30.000000";"0";"0";"Isomers Laboratories Inc";"1";"533";"Eyes";"0";"0";"";"40";"0";
"5035";"Moisture Mask Hydra Surge 60ml";"4417";"27.000000";"0";"0";"Isomers Laboratories Inc";"1";"534";"Face";"0";"0";"";"40";"0";
"5036";"ONE for Lips - Berry 8 ml";"4414";"27.000000";"0";"0";"Isomers Laboratories Inc";"1";"522";"Lips";"0";"0";"";"18";"0";
"5037";"Summer Skin Care 6 pc Collection";"4418";"69.990000";"0";"0";"Isomers Laboratories Inc";"1";"532";"SPECIAL WEB OFFERS";"0";"0";"";"50";"0";
"5039";"3 Ways to a Perfect Pout";"4420";"0.000000";"0";"0";"Isomers Laboratories Inc";"1";"538";"SPECIAL WEB OFFERS";"0";"0";"";"18";"0";
"5040";"Re-Affirming Neck and Chin Cream Duo";"4424";"0.000000";"0";"0";"Isomers Laboratories Inc";"1";"537";"SPECIAL WEB OFFERS";"0";"0";"";"30";"0";
"5041";"Matrixyl-4 Pur Collagen Peptide Serum 55 ml";"4419";"0.000000";"0";"0";"Isomers Laboratories Inc";"1";"539";"SPECIAL WEB OFFERS";"0";"0";"";"60";"0";
"5042";"Ultimate Super Skin Concentrate 30 ml";"4422";"55.000000";"0";"0";"Isomers Laboratories Inc";"1";"";"Face";"0";"0";"";"30";"0";
"5043";"24 Hr Beauty - Anniversary Duo";"4421";"0.000000";"1";"0";"Isomers Laboratories Inc";"1";"541";"SPECIAL WEB OFFERS";"0";"0";"";"30";"0";
"5044";"Re-Densify Volufirming Trio";"4423";"0.000000";"0";"0";"Isomers Laboratories Inc";"1";"542";"SPECIAL WEB OFFERS";"0";"0";"";"30";"0";
"5045";"All-in-One Complete Hydra-Protect Dream Cream 120 ml";"1258";"0.000000";"0";"0";"Isomers Laboratories Inc";"1";"544";"Face";"0";"0";"";"21";"0";